{
	"additionalNodes": [],
	"additionalParameters": {
		"root": {
			"height": 108,
			"width": 216
		}
	},
	"inputs": [],
	"outputs": [],
	"properties": {
		"1JwGqGkWOElgeDIrhgxtAF9XSbhK3pOP": {
			"height": 132,
			"title": "formation.moveCustomGroup",
			"width": 404,
			"x": 1017,
			"y": 86
		},
		"1NxzZ2L4SZnF91D3xXr4D1zfyv3Ei34v": {
			"height": 132,
			"title": "formation.moveCustomGroup",
			"width": 404,
			"x": 1007,
			"y": 358
		},
		"2mT0i4OFAQjRTowE5JdVnIJFuVNvqbQ4": {
			"height": 94,
			"title": "store",
			"width": 443,
			"x": 690,
			"y": -141
		},
		"2ohO6T3UYyQ8w0H66493lumcv04u7HEb": {
			"height": 70,
			"title": "parallel",
			"width": 202,
			"x": 251,
			"y": 13
		},
		"3gMLK2RfcGLFB5Rp6ypjnGgxsyjK65nO": {
			"height": 70,
			"title": "roleSplit",
			"width": 202,
			"x": 498,
			"y": 29
		},
		"8VzTACnCAFEKu7s4XKykLnFsJCil1xPA": {
			"height": 60,
			"title": "sequence",
			"width": 143,
			"x": 641,
			"y": 197
		},
		"8eWqJivzHF1L8Dqc3NydkorE96WZpTss": {
			"height": 54,
			"title": "nota_hol_artificialstupidity.EndMission",
			"width": 321,
			"x": 663,
			"y": 316
		},
		"8qEkRk1pJZ73WBNxcFczOwJANMwfvJK7": {
			"height": 70,
			"title": "parallel",
			"width": 202,
			"x": 786,
			"y": 111
		},
		"P7jxZgU3A0qpujCKvxIiP9DNejTUuIZe": {
			"height": 132,
			"title": "formation.moveCustomGroup",
			"width": 404,
			"x": 1011,
			"y": 230
		}
	},
	"roles": [ {
		"categories": [ "nota_hol_artificialstupidity.capturers" ],
		"name": "Role 0"
	}, {
		"categories": [ "nota_hol_artificialstupidity.transport" ],
		"name": "Role 1"
	} ],
	"root": {
		"children": [ {
			"children": [],
			"id": "2mT0i4OFAQjRTowE5JdVnIJFuVNvqbQ4",
			"nodeType": "luaCommand",
			"parameters": [ {
				"name": "var",
				"value": "hills"
			}, {
				"name": "value",
				"value": "nota_hol_artificialstupidity.GetMapHills()"
			}, {
				"name": "scriptName",
				"value": "store"
			} ],
			"scriptName": "store"
		}, {
			"children": [ {
				"children": [ {
					"children": [ {
						"children": [],
						"id": "1JwGqGkWOElgeDIrhgxtAF9XSbhK3pOP",
						"nodeType": "luaCommand",
						"parameters": [ {
							"name": "groupDefintion",
							"value": "{[units[1]] = 1, [units[5]] = 2, [units[6]] = 3}"
						}, {
							"name": "position",
							"value": "hills[2]"
						}, {
							"name": "formation",
							"value": "{Vec3(0,0,0), Vec3(0,0,0), Vec3(0,0,0)}"
						}, {
							"name": "fight",
							"value": "true"
						}, {
							"name": "scriptName",
							"value": "formation.moveCustomGroup"
						} ],
						"scriptName": "formation.moveCustomGroup"
					}, {
						"children": [],
						"id": "P7jxZgU3A0qpujCKvxIiP9DNejTUuIZe",
						"nodeType": "luaCommand",
						"parameters": [ {
							"name": "groupDefintion",
							"value": "{[units[2]] = 1}"
						}, {
							"name": "position",
							"value": "hills[3]"
						}, {
							"name": "formation",
							"value": "{Vec3(0,0,0)}"
						}, {
							"name": "fight",
							"value": "true"
						}, {
							"name": "scriptName",
							"value": "formation.moveCustomGroup"
						} ],
						"scriptName": "formation.moveCustomGroup"
					}, {
						"children": [],
						"id": "1NxzZ2L4SZnF91D3xXr4D1zfyv3Ei34v",
						"nodeType": "luaCommand",
						"parameters": [ {
							"name": "groupDefintion",
							"value": "{[units[3]] = 1}"
						}, {
							"name": "position",
							"value": "hills[1]"
						}, {
							"name": "formation",
							"value": "{Vec3(0,0,0)}"
						}, {
							"name": "fight",
							"value": "true"
						}, {
							"name": "scriptName",
							"value": "formation.moveCustomGroup"
						} ],
						"scriptName": "formation.moveCustomGroup"
					} ],
					"id": "8qEkRk1pJZ73WBNxcFczOwJANMwfvJK7",
					"nodeType": "parallel",
					"parameters": [ {
						"name": "mode",
						"value": "all-success"
					} ]
				}, {
					"children": [],
					"id": "8eWqJivzHF1L8Dqc3NydkorE96WZpTss",
					"nodeType": "luaCommand",
					"parameters": [ {
						"name": "scriptName",
						"value": "nota_hol_artificialstupidity.EndMission"
					} ],
					"scriptName": "nota_hol_artificialstupidity.EndMission"
				} ],
				"id": "8VzTACnCAFEKu7s4XKykLnFsJCil1xPA",
				"nodeType": "sequence",
				"parameters": []
			} ],
			"id": "3gMLK2RfcGLFB5Rp6ypjnGgxsyjK65nO",
			"nodeType": "roleSplit",
			"parameters": [ {
				"name": "mode",
				"value": "all-success"
			} ]
		} ],
		"id": "2ohO6T3UYyQ8w0H66493lumcv04u7HEb",
		"nodeType": "parallel",
		"parameters": [ {
			"name": "mode",
			"value": "all-success"
		} ]
	}
}