{
	"additionalNodes": [],
	"additionalParameters": {
		"root": {
			"height": 88,
			"width": 180
		}
	},
	"inputs": [],
	"outputs": [],
	"properties": {
		"6MEs31SiUyjgooKLpOP4dzoLWK7EochZ": {
			"height": 90,
			"title": "luaCondition",
			"width": 210,
			"x": 778,
			"y": 81
		},
		"6NeJlYGtBpK19SWGZ4FCbJ84HtOk6pZ0": {
			"height": 60,
			"title": "sequence",
			"width": 143,
			"x": 607,
			"y": -127
		},
		"7SDmlb3pma2eRZe0lcYduaKoiweYgJsg": {
			"height": 70,
			"title": "selector",
			"width": 131,
			"x": 585,
			"y": 125
		},
		"B1gd954qcxtCrhZ44jKHYlEbF0URpU9d": {
			"height": 92,
			"title": "store",
			"width": 226,
			"x": 1030,
			"y": 117
		},
		"Bncrqac4Dq2uZ9DPaCJOpckicSCYaiFX": {
			"height": 60,
			"title": "repeat",
			"width": 131,
			"x": 418,
			"y": 115
		},
		"MI7Tzczj0ktjqxswBRUIOjWAy9O0QVId": {
			"height": 101,
			"title": "store",
			"width": 218,
			"x": 1625,
			"y": -27
		},
		"OuxEAa03Vv4hL56st2K9nMJzaNNkUMo9": {
			"height": 60,
			"title": "repeat",
			"width": 131,
			"x": 471,
			"y": -168
		},
		"QYCxFHGVPcvuD8QqO58jrTd6CGK3t967": {
			"height": 90,
			"title": "luaCondition",
			"width": 765,
			"x": 812,
			"y": -42
		},
		"V15Q5jJCmRUAjEpp38Db4jSxdCpGxDMr": {
			"height": 60,
			"title": "repeat",
			"width": 131,
			"x": 778,
			"y": 249
		},
		"hZXBT5BoMpitv2TE2pxqxurkt714od9q": {
			"height": 70,
			"title": "parallel",
			"width": 202,
			"x": 210,
			"y": -19
		},
		"iYcrvs5NtxOKJRodcc8Iz62HDub8vx21": {
			"height": 90,
			"title": "Common.relativeMove",
			"width": 402,
			"x": 998,
			"y": 238
		},
		"shxBiVlCluDgzrDz5iDBxbxjCST6tlcu": {
			"height": 94,
			"title": "store",
			"width": 293,
			"x": 850,
			"y": -164
		}
	},
	"roles": [ {
		"categories": [ "nota_hol_artificialstupidity.commander" ],
		"name": "Commander"
	} ],
	"root": {
		"children": [ {
			"children": [ {
				"children": [ {
					"children": [],
					"id": "shxBiVlCluDgzrDz5iDBxbxjCST6tlcu",
					"nodeType": "luaCommand",
					"parameters": [ {
						"name": "var",
						"value": "windData"
					}, {
						"name": "value",
						"value": "nota_hol_artificialstupidity.Wind()"
					}, {
						"name": "scriptName",
						"value": "store"
					} ],
					"scriptName": "store"
				}, {
					"children": [ {
						"children": [],
						"id": "MI7Tzczj0ktjqxswBRUIOjWAy9O0QVId",
						"nodeType": "luaCommand",
						"parameters": [ {
							"name": "var",
							"value": "nextMove"
						}, {
							"name": "value",
							"value": "windData"
						}, {
							"name": "scriptName",
							"value": "store"
						} ],
						"scriptName": "store"
					} ],
					"id": "QYCxFHGVPcvuD8QqO58jrTd6CGK3t967",
					"nodeType": "luaCondition",
					"parameters": [ {
						"name": "expression",
						"value": "nextMove == nil or math.abs(nextMove.dirX - windData.dirX) > 7 or math.abs(nextMove.dirZ - windData.dirZ) > 7"
					}, {
						"name": "repeat",
						"value": "false"
					} ]
				} ],
				"id": "6NeJlYGtBpK19SWGZ4FCbJ84HtOk6pZ0",
				"nodeType": "sequence",
				"parameters": []
			} ],
			"id": "OuxEAa03Vv4hL56st2K9nMJzaNNkUMo9",
			"nodeType": "repeat",
			"parameters": []
		}, {
			"children": [ {
				"children": [ {
					"children": [ {
						"children": [],
						"id": "B1gd954qcxtCrhZ44jKHYlEbF0URpU9d",
						"nodeType": "luaCommand",
						"parameters": [ {
							"name": "var",
							"value": "currentMove"
						}, {
							"name": "value",
							"value": "nextMove"
						}, {
							"name": "scriptName",
							"value": "store"
						} ],
						"scriptName": "store"
					} ],
					"id": "6MEs31SiUyjgooKLpOP4dzoLWK7EochZ",
					"nodeType": "luaCondition",
					"parameters": [ {
						"name": "expression",
						"value": "currentMove ~= nextMove"
					}, {
						"name": "repeat",
						"value": "false"
					} ]
				}, {
					"children": [ {
						"children": [],
						"id": "iYcrvs5NtxOKJRodcc8Iz62HDub8vx21",
						"nodeType": "luaCommand",
						"parameters": [ {
							"name": "dist",
							"value": "{x = 5 * currentMove.dirX, z =  5 * currentMove.dirZ}"
						}, {
							"name": "fight",
							"value": "false"
						}, {
							"name": "scriptName",
							"value": "Common.relativeMove"
						} ],
						"scriptName": "Common.relativeMove"
					} ],
					"id": "V15Q5jJCmRUAjEpp38Db4jSxdCpGxDMr",
					"nodeType": "repeat",
					"parameters": []
				} ],
				"id": "7SDmlb3pma2eRZe0lcYduaKoiweYgJsg",
				"nodeType": "selector",
				"parameters": [ {
					"name": "active",
					"value": "true"
				} ]
			} ],
			"id": "Bncrqac4Dq2uZ9DPaCJOpckicSCYaiFX",
			"nodeType": "repeat",
			"parameters": []
		} ],
		"id": "hZXBT5BoMpitv2TE2pxqxurkt714od9q",
		"nodeType": "parallel",
		"parameters": [ {
			"name": "mode",
			"value": "all-success"
		} ]
	}
}